{
	"Name":"Aleksandr Akinfeev",
	"Race":"Human",
	"Fr":20,
	"Con":20,
	"Dex":15,
	"Agi":7,
	"Intelligence":12,
	"Will":10,
	"Per":11,
	"Car":10,
	"Initiative":0,
	"CharacterType":"PC",
	"CharacterClass":"Barbarian",
	"PV":24,
	"TotalPV":24,
	"Skills":[
		{
			"Name":"Machado",
			"Damage":"1d6+2",
			"Base":"dex",
			"Initiative":-7,
			"Attack":65,
			"Defense":50
		},
		{
			"Name":"Lança",
			"Damage":"1d6",
			"Base":"dex",
			"Initiative":-6,
			"Attack":15,
			"Defense":0
		},		
		{
			"Name":"Briga",
			"Damage":"1d3",
			"Base":"agi",
			"Initiative":0,
			"Attack":25,
			"Defense":15
		},
		{
			"Name":"Pontos heróicos",
			"Damage":"1d3",
			"Base":"will",
			"Initiative":0,
			"Attack":0,
			"Defense":10,
			"Effect": 2
		},
		{
			"Name":"Primeiros socorros",
			"Damage":"1d6",
			"Base":"will",
			"Initiative":0,
			"Attack":0,
			"Defense":0,
			"Effect": 4
		}		
	],
	"ChosenSkills":[]
}

