{
	"Name":"Sibyl",
	"Race":"Human",
	"Fr":10,
	"Con":12,
	"Dex":11,
	"Agi":10,
	"Intelligence":17,
	"Will":11,
	"Per":13,
	"Car":17,
	"Initiative":0,
	"CharacterType":"PC",
	"CharacterClass":"Noble",
	"PV":11,
	"TotalPV":11,
	"Skills":[
		{
			"Name":"Esquiva",
			"Damage":"",
			"Base":"agi",
			"Initiative":0,
			"Attack":0,
			"Defense":0
		},	
		{
			"Name":"Briga",
			"Damage":"1d3",
			"Base":"agi",
			"Initiative":0,
			"Attack":0,
			"Defense":0
		},
		{
			"Name":"Sedução",
			"Damage":"1d3",
			"Base":"will",
			"Initiative":0,
			"Attack":0,
			"Defense":0,
			"Effect": 3
		},
		{
			"Name":"Inocência",
			"Damage":"1d3",
			"Base":"will",
			"Initiative":0,
			"Attack":0,
			"Defense":15,
			"Effect": 2
		},
		{
			"Name":"Canto",
			"Damage":"1d3",
			"Base":"car",
			"Initiative":0,
			"Attack":15,
			"Defense":0,
			"Effect": 1
		},
		{
			"Name":"Instrumento musical",
			"Damage":"1d3",
			"Base":"will",
			"Initiative":0,
			"Attack":0,
			"Defense":15,
			"Effect": 1
		},
		{
			"Name":"Escutar",
			"Damage":"1d3",
			"Base":"will",
			"Initiative":0,
			"Attack":0,
			"Defense":10,
			"Effect": 1
		}		
	],
	"ChosenSkills":[]
}

