{
	"Name":"Yvana Orwell",
	"Race":"Human",
	"Fr":14,
	"Con":10,
	"Dex":17,
	"Agi":15,
	"Intelligence":11,
	"Will":13,
	"Per":12,
	"Car":12,
	"Initiative":0,
	"CharacterType":"PC",
	"CharacterClass":"Archer",
	"PV":12,
	"TotalPV":12,
	"Skills":[
		{
			"Name":"Arco longo",
			"Damage":"1d6+2",
			"Base":"dex",
			"Initiative":-9,
			"Attack":43,
			"Defense":0
		},
		{
			"Name":"Faca",
			"Damage":"1d3",
			"Base":"dex",
			"Initiative":-3,
			"Attack":10,
			"Defense":10
		},		
		{
			"Name":"Esquiva",
			"Damage":"",
			"Base":"agi",
			"Initiative":0,
			"Attack":0,
			"Defense":35
		},	
		{
			"Name":"Briga",
			"Damage":"",
			"Base":"agi",
			"Initiative":0,
			"Attack":0,
			"Defense":35
		},
		{
			"Name":"Escutar",
			"Damage":"1d3",
			"Base":"will",
			"Initiative":0,
			"Attack":0,
			"Defense":10,
			"Effect": 1
		},
		{
			"Name":"Intimidação",
			"Damage":"1d3",
			"Base":"will",
			"Initiative":0,
			"Attack":0,
			"Defense":0,
			"Effect": 3
		},
		{
			"Name":"Primeiros socorros",
			"Damage":"1d6",
			"Base":"will",
			"Initiative":0,
			"Attack":0,
			"Defense":0,
			"Effect": 4
		}


	],
	"ChosenSkills":[]
}

